<?xml version="1.0" encoding="utf-8"?>
<!-- Generator: Adobe Illustrator 15.1.0, SVG Export Plug-In . SVG Version: 6.00 Build 0)  -->
<!DOCTYPE svg PUBLIC "-//W3C//DTD SVG 1.1//EN" "http://www.w3.org/Graphics/SVG/1.1/DTD/svg11.dtd">
<svg version="1.1" id="Ebene_1" xmlns="http://www.w3.org/2000/svg" xmlns:xlink="http://www.w3.org/1999/xlink" x="0px" y="0px"
	 width="32px" height="32px" viewBox="0 0 32 32" enable-background="new 0 0 32 32" xml:space="preserve">
<g>
	<path d="M31.673,12.608c-0.087-0.328-0.375-0.581-0.724-0.63l-2.902-0.377l-0.419-1.007l1.789-2.328
		c0.211-0.276,0.233-0.661,0.07-0.932c-0.005-0.011-0.662-1.134-2.178-2.647c-1.43-1.432-2.565-2.141-2.609-2.155
		c-0.298-0.185-0.704-0.158-0.97,0.051l-2.323,1.785l-1.01-0.422l-0.379-2.904c-0.046-0.338-0.287-0.616-0.64-0.718
		c-0.227-0.054-1.451-0.322-3.38-0.322c-2.06,0-3.334,0.312-3.388,0.325c-0.33,0.084-0.585,0.371-0.634,0.722L11.6,3.956
		l-1.008,0.415L8.273,2.588C8.001,2.374,7.618,2.339,7.295,2.535C7.097,2.657,6.035,3.339,4.686,4.69
		C3.254,6.12,2.594,7.193,2.521,7.313C2.344,7.616,2.367,7.991,2.583,8.272l1.805,2.347l-0.44,0.983L1.039,11.98
		c-0.335,0.046-0.613,0.287-0.716,0.644C0.248,12.949,0.001,14.149,0,16c0,1.885,0.249,3.064,0.328,3.396
		c0.087,0.324,0.37,0.574,0.715,0.623L3.951,20.4l0.417,1.008l-1.784,2.324c-0.214,0.279-0.237,0.654-0.062,0.957
		c0.007,0.01,0.666,1.125,2.165,2.623c1.453,1.455,2.57,2.131,2.626,2.166c0.309,0.178,0.697,0.143,0.954-0.062l2.325-1.785
		l1.007,0.416l0.381,2.92c0.05,0.332,0.29,0.609,0.643,0.711C12.946,31.754,14.142,32,16.001,32c1.93,0,3.154-0.27,3.403-0.33
		c0.326-0.092,0.568-0.371,0.618-0.717l0.378-2.906l1.01-0.416l2.316,1.781c0.274,0.215,0.66,0.24,0.962,0.066
		c0.011-0.008,1.141-0.68,2.624-2.166c1.312-1.309,1.981-2.324,2.17-2.629c0.173-0.299,0.148-0.672-0.064-0.949l-1.785-2.326
		l0.418-1.008l2.906-0.381c0.341-0.045,0.621-0.289,0.721-0.643C31.731,19.15,31.999,17.926,32,16
		C31.998,14.077,31.729,12.85,31.673,12.608z M26.604,19.344c-0.14,0.412-0.564,1.43-0.742,1.789
		c-0.144,0.287-0.108,0.643,0.091,0.908l1.728,2.246l-0.174,0.225c-0.389,0.51-0.875,1.059-1.404,1.588
		c-0.531,0.531-1.067,1.006-1.591,1.408l-0.225,0.174l-2.247-1.727c-0.146-0.113-0.321-0.176-0.509-0.18l-0.135-0.004
		c0,0-1.705,0.715-2.054,0.834c-0.311,0.105-0.535,0.383-0.574,0.699l-0.368,2.814l-0.28,0.037c-0.443,0.059-1.17,0.129-2.119,0.129
		c-0.94,0-1.671-0.07-2.118-0.129l-0.283-0.037l-0.367-2.807c-0.04-0.324-0.264-0.6-0.571-0.705
		c-0.418-0.145-1.558-0.629-1.807-0.752c-0.283-0.133-0.634-0.098-0.896,0.098l-2.245,1.73L7.487,27.51
		c-0.524-0.404-1.059-0.879-1.589-1.408c-0.529-0.529-1.004-1.064-1.408-1.59l-0.174-0.223l1.734-2.256
		c0.194-0.26,0.229-0.613,0.087-0.895c-0.178-0.363-0.635-1.475-0.744-1.795c-0.105-0.316-0.377-0.537-0.7-0.576L1.878,18.4
		l-0.035-0.283C1.759,17.449,1.715,16.738,1.715,16c0-0.753,0.045-1.465,0.13-2.118L1.882,13.6l2.812-0.368
		c0.322-0.043,0.597-0.268,0.699-0.572c0.154-0.454,0.577-1.458,0.735-1.781c0.153-0.297,0.121-0.647-0.083-0.916L4.317,7.713
		l0.176-0.226c0.406-0.528,0.88-1.062,1.406-1.589C6.417,5.38,6.951,4.908,7.487,4.494l0.226-0.175l2.239,1.722
		c0.251,0.201,0.607,0.248,0.922,0.095c0.348-0.174,1.293-0.574,1.782-0.741c0.316-0.105,0.535-0.377,0.574-0.699l0.368-2.814
		l0.282-0.037c0.446-0.058,1.175-0.128,2.118-0.128s1.672,0.07,2.117,0.128l0.283,0.037l0.367,2.809
		c0.04,0.331,0.26,0.602,0.571,0.705c0.428,0.146,1.442,0.57,1.788,0.74c0.273,0.144,0.63,0.121,0.912-0.087l2.248-1.729
		l0.226,0.174c0.521,0.401,1.056,0.875,1.588,1.406c0.529,0.53,1.003,1.065,1.406,1.591l0.174,0.224l-1.731,2.252
		c-0.197,0.261-0.231,0.616-0.087,0.9c0.188,0.379,0.62,1.433,0.744,1.791c0.103,0.308,0.377,0.532,0.698,0.575l2.813,0.368
		l0.038,0.28c0.058,0.444,0.129,1.172,0.129,2.12c0,0.947-0.071,1.676-0.129,2.119L30.118,18.4l-2.809,0.367
		C26.979,18.809,26.708,19.029,26.604,19.344z"/>
	<path d="M15.999,7.907c-4.463,0-8.093,3.63-8.093,8.093c0,4.465,3.63,8.096,8.093,8.096c4.464,0,8.094-3.631,8.094-8.096
		C24.093,11.537,20.463,7.907,15.999,7.907z M15.999,22.395c-3.523,0-6.391-2.869-6.391-6.395c0-3.525,2.867-6.393,6.391-6.393
		c3.525,0,6.395,2.868,6.395,6.393C22.394,19.525,19.524,22.395,15.999,22.395z"/>
</g>
</svg>
